{
  "info": {
    "count": 50,
    "totalPages": 149,
    "previousPage": null,
    "nextPage": "http://api.disneyapi.dev/character?page=2&pageSize=50"
  },
  "data": [
    {
      "_id": 112,
      "films": ["Hercules (film)"],
      "sourceUrl": "https://disney.fandom.com/wiki/Achilles_(Hercules)",
      "name": "Achilles",
      "imageUrl": "https://static.wikia.nocookie.net/disney/images/d/d3/Vlcsnap-2015-05-06-23h04m15s601.png"
    },
    {
      "_id": 18,
      "films": ["The Fox and the Hound", "The Fox and the Hound 2"],
      "sourceUrl": "https://disney.fandom.com/wiki/Abigail_the_Cow",
      "name": "Abigail the Cow",
      "imageUrl": "https://static.wikia.nocookie.net/disney/images/0/05/Fox-disneyscreencaps_com-901.jpg"
    },
    {
      "_id": 139,
      "films": ["The Lion King", "The Lion King (2019 film)"],
      "sourceUrl": "https://disney.fandom.com/wiki/Ahadi",
      "name": "Ahadi",
      "imageUrl": "https://static.wikia.nocookie.net/disney/images/b/b3/Ahadihead.png"
    },
    {
      "_id": 204,
      "films": ["The Robber Kitten", "Mickey's Polo Team"],
      "sourceUrl": "https://disney.fandom.com/wiki/Ambrose",
      "name": "Ambrose",
      "imageUrl": "https://static.wikia.nocookie.net/disney/images/d/d3/Ambrose.jpg"
    },
    {
      "_id": 215,
      "films": ["Ben and Me"],
      "sourceUrl": "https://disney.fandom.com/wiki/Amos",
      "name": "Amos",
      "imageUrl": "https://static.wikia.nocookie.net/disney/images/8/83/Tve8132-19531110-2244.jpg"
    },
    {
      "_id": 337,
      "films": ["Homeward Bound II: Lost in San Francisco"],
      "sourceUrl": "https://disney.fandom.com/wiki/Ashcan_and_Pete",
      "name": "Ashcan and Pete",
      "imageUrl": "https://static.wikia.nocookie.net/disney/images/8/88/AshcanPete.PNG"
    },
    {
      "_id": 342,
      "films": ["Bedtime Stories"],
      "sourceUrl": "https://disney.fandom.com/wiki/Aspen",
      "name": "Aspen",
      "imageUrl": "https://static.wikia.nocookie.net/disney/images/8/8b/Bedtime_stories_aspen.jpg"
    },
    {
      "_id": 350,
      "films": ["Tomorrowland (film)"],
      "sourceUrl": "https://disney.fandom.com/wiki/Athena_(Tomorrowland)",
      "name": "Athena",
      "imageUrl": "https://static.wikia.nocookie.net/disney/images/d/db/Athena_Tomorrowland.jpg"
    },
    {
      "_id": 364,
      "films": ["Return to Oz"],
      "sourceUrl": "https://disney.fandom.com/wiki/Aunt_Em",
      "name": "Aunt Em",
      "imageUrl": "https://static.wikia.nocookie.net/disney/images/5/5d/Em4.jpg"
    },
    {
      "_id": 469,
      "films": ["Mary Poppins (film)", "Mary Poppins Returns"],
      "sourceUrl": "https://disney.fandom.com/wiki/Michael_Banks",
      "name": "Michael Banks",
      "imageUrl": "https://static.wikia.nocookie.net/disney/images/4/40/Michael_Banks.gif"
    },
    {
      "_id": 500,
      "films": ["The Sword in the Stone"],
      "sourceUrl": "https://disney.fandom.com/wiki/Sir_Bart",
      "name": "Sir Bart",
      "imageUrl": "https://static.wikia.nocookie.net/disney/images/6/6d/Sword-in-stone-disneyscreencaps.com-8698.jpg"
    },
    {
      "_id": 566,
      "films": ["The Haunted Mansion (film)"],
      "sourceUrl": "https://disney.fandom.com/wiki/Beheaded_Knight",
      "name": "Beheaded Knight",
      "imageUrl": "https://static.wikia.nocookie.net/disney/images/f/fb/Beheaded_Knight.png"
    },
    {
      "_id": 351,
      "films": [
        "The Little Mermaid: Ariel's Beginning",
        "The Little Mermaid (live-action film)"
      ],
      "sourceUrl": "https://disney.fandom.com/wiki/Queen_Athena",
      "name": "Queen Athena",
      "imageUrl": "https://static.wikia.nocookie.net/disney/images/4/41/Athena_TLM.jpg"
    },
    {
      "_id": 157,
      "films": ["Freaky Friday (2003 film)"],
      "sourceUrl": "https://disney.fandom.com/wiki/Alan_Coleman",
      "name": "Alan Coleman",
      "imageUrl": "https://static.wikia.nocookie.net/disney/images/c/c0/Alan_Coleman.jpg"
    },
    {
      "_id": 206,
      "films": ["Treasure Planet"],
      "sourceUrl": "https://disney.fandom.com/wiki/Captain_Amelia",
      "name": "Captain Amelia",
      "imageUrl": "https://static.wikia.nocookie.net/disney/images/0/0c/Profile_-_Captain_Amelia.png"
    },
    {
      "_id": 223,
      "films": ["The Cat from Outer Space"],
      "sourceUrl": "https://disney.fandom.com/wiki/Captain_Anderson",
      "name": "Captain Anderson",
      "imageUrl": "https://static.wikia.nocookie.net/disney/images/b/bc/CaptainAndersonCatFromSpace.jpg"
    },
    {
      "_id": 268,
      "films": ["The Happiest Millionaire"],
      "sourceUrl": "https://disney.fandom.com/wiki/Anthony_Biddle",
      "name": "Anthony Biddle",
      "imageUrl": "https://static.wikia.nocookie.net/disney/images/6/64/Images_%2812%29-0.jpg"
    },
    {
      "_id": 278,
      "films": ["Savage Sam"],
      "sourceUrl": "https://disney.fandom.com/wiki/Apaches",
      "name": "Apaches",
      "imageUrl": "https://static.wikia.nocookie.net/disney/images/0/0e/Old-yeller-2-movie-collection-20060206040952451-000.jpg"
    },
    {
      "_id": 322,
      "films": ["Treasure Planet"],
      "sourceUrl": "https://disney.fandom.com/wiki/Mr._Arrow",
      "name": "Mr. Arrow",
      "imageUrl": "https://static.wikia.nocookie.net/disney/images/5/51/Profile_-_Mr._Arrow.png"
    }
  ]
}
